{"page":1,"per_page":10,"total":40,"total_pages":4,"data":[{"city":"Houston","name":"Double Roti","estimated_cost":70,"user_rating":{"average_rating":4.2,"votes":312},"id":91},{"city":"Houston","name":"Ifthar","estimated_cost":350,"user_rating":{"average_rating":4,"votes":732},"id":92},{"city":"Houston","name":"Kashi Art Cafe","estimated_cost":60,"user_rating":{"average_rating":4.4,"votes":1209},"id":93},{"city":"Houston","name":"Cafe 17","estimated_cost":70,"user_rating":{"average_rating":4.6,"votes":877},"id":94},{"city":"Houston","name":"The Grill Lab","estimated_cost":70,"user_rating":{"average_rating":4.3,"votes":579},"id":95},{"city":"Houston","name":"Mocha Art Cafe","estimated_cost":70,"user_rating":{"average_rating":4.8,"votes":566},"id":96},{"city":"Houston","name":"BSweets","estimated_cost":250,"user_rating":{"average_rating":4.5,"votes":168},"id":97},{"city":"Houston","name":"360 Degrees Pizzeria","estimated_cost":150,"user_rating":{"average_rating":4.2,"votes":427},"id":98},{"city":"Houston","name":"Nasi And Mee","estimated_cost":10,"user_rating":{"average_rating":4.7,"votes":196},"id":99},{"city":"Houston","name":"Dhe Puttu","estimated_cost":60,"user_rating":{"average_rating":4.4,"votes":1142},"id":910}]}